[gd_scene load_steps=2 format=2]

[sub_resource type="CircleShape2D" id=1]

[node name="RigidBody2D" type="RigidBody2D"]

[node name="CollisionShape2D" type="CollisionShape2D" parent="."]
shape = SubResource( 1 )
